{
  "terminal.integrated.shell.linux": "/bin/bash",
  "workbench.colorTheme": "Visual Studio Dark",
  "extensions.autoCheckUpdates": false,
  "extensions.autoUpdate": false,
  "workbench.iconTheme": "material-icon-theme",
  "terminal.integrated.copyOnSelection": true,
  "editor.tabSize": 2,
  "editor.renderWhitespace": "boundary",
  "terminal.integrated.tabs.enabled": true,
  "redhat.telemetry.enabled": false,
  "python.pythonPath": "/home/user/.pyenv/versions/anaconda3-${ANACONDA_VERSION}/bin/python",
  "terminal.integrated.cwd": "$HOME_DIR"
}
